{
    "version": "https://jsonfeed.org/version/1",
    "title": "cogfactory",
    "description": "",
    "home_page_url": "https://sumwatt.gitlab.io/cogfactory",
    "feed_url": "https://sumwatt.gitlab.io/cogfactory/feed.json",
    "user_comment": "",
    "author": {
        "name": "colson"
    },
    "items": [
        {
            "id": "https://sumwatt.gitlab.io/cogfactory/a-test-post.html",
            "url": "https://sumwatt.gitlab.io/cogfactory/a-test-post.html",
            "title": "A test post",
            "summary": "a second post as a test",
            "content_html": "<p>a second post as a test</p>",
            "author": {
                "name": "colson"
            },
            "tags": [
            ],
            "date_published": "2021-10-19T23:02:28-07:00",
            "date_modified": "2021-10-19T23:02:28-07:00"
        }
    ]
}
